{
  "type": "service_account",
  "project_id": "sandbox-191019",
  "private_key_id": "388c2e16f8b9d8b9c56e2efe2da57652982785b6",
  "private_key": "-----BEGIN PRIVATE KEY-----\nMIIEvAIBADANBgkqhkiG9w0BAQEFAASCBKYwggSiAgEAAoIBAQDYP3yC3TH6mIGo\nCsxELVGyKHrvvRwTRXvupIKshXSfp0sGvg4kbYC2bFYGbq5gEMK4/20ecfvvIqJg\nQkIHP58bZh5W7niTQoIDOlINssmqt1wnBHn3KZy6CC7Jgyrn53tU/QyFkENvqy2I\n8yY0MPVjcmRhAB1uYoLEryVANHWwhctc/eJugyRlsUYl40eJ9warRPNjebiJdwr2\nbbL/pZLNQxC/+kF8IzZhF7k8FpPJUbq3lEgtkY1zhPMj4I04TZB0fyMbCcaoucDB\nLwhX/L2ETsOCl6MVc78ZigVuWxm3lsEKXegjJG2QDy2/obhNxzhKPHYrbH826Qmm\nZMCUG6P7AgMBAAECggEASXP/IiBqWpm06NSKH9pY9rAjWg2dXLpsZ1o//MP0Ikrc\nBDVIbn03jD9uVQ8BciYfTmGMuhuznL3h89ptvTKSI+djBNpJ4JNlwBzuRDLnp3JS\n/fnaR+c9kj83TUGdsFoDnZG60B95mJPHis40uuOqZpYznHNCi/0wOAjaGV34X/Xi\nU9wm+w2VxWYH7fx63aQ/jLJ0tTIVCb9vDjk+NpcSydr0C4NaSgfUXaTYSrwC9zF0\n8i7XEPVc/8g3gL8KTVZJtQosUndNV8UR+KwYZ3YBeORiRPu9kmixfflhn3Ncf9L8\n8+XxWsxttQzcCpyxyDYjan1kNCBFjZsmsNfxVgMJGQKBgQD4VIpLpNWgJTezKLDF\n6jpi7YXLp11dYSyiSH/CfQy4632rT5TespKgbTHLmhVnPLgPiFRUOb8y251GoJdg\nhP6hJljOcIyfJEUGpJ3WTtjCDDTd8x2cmCyLShSflG3UNjLDypQ1O+OdVXJvSehw\njfvJ6VnjRewKGnUcxecxQ2jiXwKBgQDe7Uh9NafZYtPVV+1TDzFifb/gA4QpzTee\nymB5StGw370SSgcWtf2T2rMKsq//264xyK8zTtDTKyLZaLQIC7l7LNjotXDuoFyO\nny7BUYcloQrmIZg9pC3qSJyg9n4r1d/+3zliHoktOTD3LwCQVn2di0DF9jSqQ+ao\nHm7uCmr75QKBgG+TXIfcSfeogTxIPhTOxukIG6ODUVnRfYJ03KKAGSVE+bPtD9B3\nn5XhOgxm8NLv3ytrb6hgQd4R+rpvEVTWrKmvVxt6SlR+sVzovdo6lv2pCl/nChj/\n7pOu91E0GZzNtUVvUeQRQpXAfKgwJvXbdZQk+rQ5CHMJrDD/Yn8p8Ig1AoGASPTO\n7GtK61H0kbWc7bnjJ6CP0vhToHqQ4V7KA+gAiCow7nNbrosQ2fqQ7cdc4hc7Av/y\nlpAMt48+cHhbsuZjZXRf6Ii41N+Wavadjpbn6+CweHA2KrY4cJwi5mrFEAOGsxrK\n5NmpeytkYwD25kXoBk80e5T/11kxe4O6Oh0etiECgYBiEaF8jO/lxesnL0m3PwtD\nKK1OREjsrHpeqVwZ+mRecymYhfPQVkcCU0v0ZqRMBuT0NVAlisTQMxg5tmHoWf4/\n3NXtNOHtKSMLY8TIUvAVjbtxdbGleURQnFoTSQiC3Qi4OAKOjBp8VGv3UhR2mgdg\nCh4aELr7fU/FA6OAtoZBPg==\n-----END PRIVATE KEY-----\n",
  "client_email": "search@sandbox-191019.iam.gserviceaccount.com",
  "client_id": "102589558803276581014",
  "auth_uri": "https://accounts.google.com/o/oauth2/auth",
  "token_uri": "https://accounts.google.com/o/oauth2/token",
  "auth_provider_x509_cert_url": "https://www.googleapis.com/oauth2/v1/certs",
  "client_x509_cert_url": "https://www.googleapis.com/robot/v1/metadata/x509/search%40sandbox-191019.iam.gserviceaccount.com"
}
